Division,WeightClassKg,Place,Name,Team,BodyweightKg,Best3SquatKg,Best3BenchKg,Best3DeadliftKg,TotalKg,Equipment,Event,Sex,BirthDate
Girls,44.23,1,Kaitlynn Barnett,Quitman,43.18,83.91,45.36,106.59,235.87,Single-ply,SBD,F,
Girls,44.23,2,Kenna Roddey,Normangee,42.73,77.11,52.16,99.79,229.06,Single-ply,SBD,F,
Girls,44.23,3,Emily Drake,Redwater,42.09,79.38,43.09,88.45,210.92,Single-ply,SBD,F,
Girls,44.23,4,Alyssa Ray,Maud,43.36,70.31,47.63,92.99,210.92,Single-ply,SBD,F,
Girls,44.23,5,Myldred Viquerias,Kemp,43.18,72.57,38.56,92.99,204.12,Single-ply,SBD,F,
Girls,44.23,6,Amber Lowery,Pollok Central,43.54,70.31,34.02,90.72,195.04,Single-ply,SBD,F,
Girls,44.23,7,Karlie Burns,Gilmer Union Hill,43.41,68.04,43.09,77.11,188.24,Single-ply,SBD,F,
Girls,44.23,8,Marley Martin,Pollok Central,44.09,72.57,36.29,72.57,181.44,Single-ply,SBD,F,
Girls,44.23,9,Melissa Ramirez,Chireno,43.36,52.16,43.09,72.57,167.83,Single-ply,SBD,F,
Girls,44.23,DQ,Cristina Ramirez,Quitman,42.82,,,,,Single-ply,SBD,F,
Girls,44.23,DQ,Skylar Kamp,Kerens,42.55,,,,,Single-ply,SBD,F,
Girls,44.23,DQ,Hailey Ragon,Overton,44.18,74.84,,,,Single-ply,SBD,F,
Girls,47.85,1,Liann James,Diana New Diana,47.36,106.59,54.43,115.67,276.69,Single-ply,SBD,F,
Girls,47.85,2,Ja'Miyah Burton,Frankston,47.63,102.06,45.36,111.13,258.55,Single-ply,SBD,F,
Girls,47.85,3,Kara Roddey,Normangee,47.63,88.45,56.7,108.86,254.01,Single-ply,SBD,F,
Girls,47.85,4,Guinevere Young,Elkhart,46.54,95.25,45.36,104.33,244.94,Single-ply,SBD,F,
Girls,47.85,5,Chloe Williams,Kemp,46.99,97.52,58.97,88.45,244.94,Single-ply,SBD,F,
Girls,47.85,6,Katie Garner,Winnsboro,47.08,90.72,43.09,102.06,235.87,Single-ply,SBD,F,
Girls,47.85,7,Addison Marcee,Quitman,45.72,88.45,49.9,90.72,229.06,Single-ply,SBD,F,
Girls,47.85,8,Amber Strube,Gilmer Union Hill,47.81,72.57,52.16,97.52,222.26,Single-ply,SBD,F,
Girls,47.85,9,Trinity Brantley,Simms Bowie,47.36,86.18,34.02,97.52,217.72,Single-ply,SBD,F,
Girls,47.85,10,Mabree Moore,Rice,47.72,74.84,38.56,97.52,210.92,Single-ply,SBD,F,
Girls,47.85,11,Laika Sanders,Shelbyville,47.63,90.72,38.56,79.38,208.65,Single-ply,SBD,F,
Girls,47.85,DQ,Zoe White,Redwater,45.45,,,,,Single-ply,SBD,F,
Girls,47.85,DQ,Mayson Smith,Harleton,45.36,,,,,Single-ply,SBD,F,
Girls,51.94,1,Jordan Stephens #1,Elkhart,50.71,117.93,72.57,117.93,308.44,Single-ply,SBD,F,
Girls,51.94,2,Bella Strickland,Grand Saline,50.17,106.59,47.63,124.74,278.96,Single-ply,SBD,F,
Girls,51.94,3,Emma Jo Smith,Fairfield,51.44,106.59,56.7,106.59,269.89,Single-ply,SBD,F,
Girls,51.94,4,Deandra Mills,Trinity,49.44,102.06,52.16,113.4,267.62,Single-ply,SBD,F,
Girls,51.94,5,Jaycee Eastman,Troup,51.17,102.06,52.16,113.4,267.62,Single-ply,SBD,F,
Girls,51.94,6,Katelyn McCoy,Malakoff,49.26,97.52,49.9,106.59,254.01,Single-ply,SBD,F,
Girls,51.94,7,Alayna Stafford,Harleton,49.17,102.06,52.16,86.18,240.4,Single-ply,SBD,F,
Girls,51.94,8,Skylar Flores,Quitman,50.26,99.79,45.36,90.72,235.87,Single-ply,SBD,F,
Girls,51.94,9,Lexia Blanks,Groveton,49.53,92.99,47.63,92.99,233.6,Single-ply,SBD,F,
Girls,51.94,10,Grace Hull,Jewett Leon,50.53,81.65,45.36,102.06,229.06,Single-ply,SBD,F,
Girls,51.94,11,Vanessa Aguilar,Mount Vernon,51.53,83.91,38.56,106.59,229.06,Single-ply,SBD,F,
Girls,51.94,12,Jazmin Mendez,Daingerfield,50.62,70.31,47.63,102.06,219.99,Single-ply,SBD,F,
Girls,51.94,13,Reagan Tucker,Palmer,50.08,81.65,34.02,97.52,213.19,Single-ply,SBD,F,
Girls,51.94,DQ,Cristal Plata,Quitman,51.53,,,,,Single-ply,SBD,F,
Girls,51.94,DQ,Felicity Frushour,Redwater,50.35,,,,,Single-ply,SBD,F,
Girls,56.02,1,Marcee Brooklyn,Quitman,52.98,122.47,72.57,122.47,317.51,Single-ply,SBD,F,
Girls,56.02,2,Emaly Sneed,Pattonville Prairiland,55.34,111.13,74.84,129.27,315.25,Single-ply,SBD,F,
Girls,56.02,3,Jozalyn Sewell,Blooming Grove,53.71,129.27,72.57,108.86,310.71,Single-ply,SBD,F,
Girls,56.02,4,Mireya Evans,Gladewater Union Grove,54.79,122.47,72.57,115.67,310.71,Single-ply,SBD,F,
Girls,56.02,5,Sam Wells,Redwater,54.25,108.86,70.31,120.2,299.37,Single-ply,SBD,F,
Girls,56.02,6,Abby Coleman,Fairfield,54.61,120.2,65.77,108.86,294.84,Single-ply,SBD,F,
Girls,56.02,7,Haven Benge,Ore City,55.07,113.4,56.7,117.93,288.03,Single-ply,SBD,F,
Girls,56.02,8,Jaylee Bennett,Winnsboro,55.7,111.13,56.7,115.67,283.5,Single-ply,SBD,F,
Girls,56.02,9,Mariana Gonzalez,Rice,55.25,102.06,61.23,106.59,269.89,Single-ply,SBD,F,
Girls,56.02,10,Natalee Prda,Frankston,55.52,106.59,61.23,97.52,265.35,Single-ply,SBD,F,
Girls,56.02,11,Katie Stansberry,Gladewater Sabine,55.16,97.52,54.43,104.33,256.28,Single-ply,SBD,F,
Girls,56.02,12,Tessa Peterson,Gladewater Sabine,54.79,90.72,56.7,104.33,251.74,Single-ply,SBD,F,
Girls,56.02,13,Sanaa Fields,Daingerfield,55.97,81.65,40.82,115.67,238.14,Single-ply,SBD,F,
Girls,60.1,1,Sarah Mann,Elkhart,59.42,131.54,72.57,117.93,322.05,Single-ply,SBD,F,
Girls,60.1,2,Kinley Haas,Elkhart,59.6,133.81,63.5,122.47,319.78,Single-ply,SBD,F,
Girls,60.1,3,MyShayla Owens,Palestine Westwood,56.7,124.74,56.7,129.27,310.71,Single-ply,SBD,F,
Girls,60.1,4,Jadan Alsip,Groveton,58.42,127.01,65.77,117.93,310.71,Single-ply,SBD,F,
Girls,60.1,5,Esmeralda Almaguer,Kerens,58.33,117.93,70.31,120.2,308.44,Single-ply,SBD,F,
Girls,60.1,6,Cedriyah Holman,San Augustine,60.06,104.33,61.23,142.88,308.44,Single-ply,SBD,F,
Girls,60.1,7,Libby Thornburgh,Gladewater Sabine,58.06,113.4,79.38,113.4,306.17,Single-ply,SBD,F,
Girls,60.1,8,Bailey Ackerman,Fairfield,59.69,111.13,56.7,127.01,294.84,Single-ply,SBD,F,
Girls,60.1,9,JaKhyra Conner,Daingerfield,56.15,111.13,58.97,120.2,290.3,Single-ply,SBD,F,
Girls,60.1,10,Ruby Aguirre,Elkhart,59.24,129.27,61.23,92.99,283.5,Single-ply,SBD,F,
Girls,60.1,11,Asia Newsome,Diana New Diana,59.15,102.06,52.16,122.47,276.69,Single-ply,SBD,F,
Girls,60.1,12,Natalie Wicker,Rice,59.78,102.06,56.7,113.4,272.16,Single-ply,SBD,F,
Girls,60.1,13,Karlee Cochran,Harleton,59.24,127.01,63.5,,190.51,Single-ply,SB,F,
Girls,60.1,DQ,Mariska de Bruijn,Mount Vernon,60.06,,,,,Single-ply,SBD,F,
Girls,67.36,1,Skylar Johnson #1,Pattonville Prairiland,65.59,147.42,68.04,147.42,362.87,Single-ply,SBD,F,
Girls,67.36,2,Kallie King,Simms Bowie,66.22,145.15,65.77,151.95,362.87,Single-ply,SBD,F,
Girls,67.36,3,Isabela Vizcaya,Cumby,63.41,142.88,70.31,142.88,356.07,Single-ply,SBD,F,
Girls,67.36,4,Haley Manns,Diana New Diana,66.5,129.27,68.04,145.15,342.46,Single-ply,SBD,F,
Girls,67.36,5,Gyselle Santoy,Winnsboro,64.41,127.01,74.84,136.08,337.93,Single-ply,SBD,F,
Girls,67.36,6,Lexi Smith,Pattonville Prairiland,63.23,122.47,72.57,133.81,328.85,Single-ply,SBD,F,
Girls,67.36,7,Shea Nelson,Hughes Springs,63.23,102.06,63.5,127.01,292.57,Single-ply,SBD,F,
Girls,67.36,8,Haley Wigington,Big Sandy Harmony,66.59,108.86,56.7,90.72,256.28,Single-ply,SBD,F,
Girls,67.36,9,Tara Wells,Troup,65.05,140.61,70.31,,210.92,Single-ply,SB,F,
Girls,67.36,DQ,Courtney Parker,Kemp,64.86,,,,,Single-ply,SBD,F,
Girls,67.36,DQ,Katelynn Fuller,Lone Oak,65.41,183.7,,,,Single-ply,SBD,F,
Girls,67.36,DQ,Claire Barham,Blooming Grove,65.59,,,,,Single-ply,SBD,F,
Girls,67.36,DQ,Kiera DeCluette,Grapeland,63.23,,,,,Single-ply,SBD,F,
Girls,75.07,1,Eva Scott,Harleton,73.39,181.44,83.91,145.15,410.5,Single-ply,SBD,F,
Girls,75.07,2,Lauren Simpson,Elkhart,73.57,174.63,79.38,149.69,403.7,Single-ply,SBD,F,
Girls,75.07,3,Gracie Crain,De Kalb,72.85,158.76,72.57,156.49,387.82,Single-ply,SBD,F,
Girls,75.07,4,Gatha Davis,Quitman,69.76,140.61,63.5,147.42,351.53,Single-ply,SBD,F,
Girls,75.07,5,Lexi Vestal,Tatum,72.21,156.49,63.5,117.93,337.93,Single-ply,SBD,F,
Girls,75.07,6,Jayden Dodson,Diana New Diana,73.75,149.69,63.5,124.74,337.93,Single-ply,SBD,F,
Girls,75.07,7,Alyssa Hill,Trinity,75.02,138.35,70.31,117.93,326.59,Single-ply,SBD,F,
Girls,75.07,8,Emily Gabel,Omaha Pewitt,70.22,127.01,65.77,131.54,324.32,Single-ply,SBD,F,
Girls,75.07,9,Kioija Gates,Shelbyville,72.39,136.08,58.97,124.74,319.78,Single-ply,SBD,F,
Girls,75.07,10,Constance Smith,Cumby,68.4,136.08,63.5,115.67,315.25,Single-ply,SBD,F,
Girls,75.07,11,Sidda Radford,Diana New Diana,67.95,108.86,61.23,124.74,294.84,Single-ply,SBD,F,
Girls,75.07,DQ,Cheyenne Rhea,Blooming Grove,68.95,127.01,68.04,,,Single-ply,SBD,F,
Girls,75.07,DQ,Katie Crews,Malakoff,73.26,,,,,Single-ply,SBD,F,
Girls,82.33,1,Julia Loeza,Diana New Diana,80.92,145.15,79.38,158.76,383.29,Single-ply,SBD,F,
Girls,82.33,2,Chloe Woods,Kemp,76.75,158.76,90.72,115.67,365.14,Single-ply,SBD,F,
Girls,82.33,3,Emaleigh Barsz,De Kalb,80.83,142.88,63.5,147.42,353.8,Single-ply,SBD,F,
Girls,82.33,4,Kelli Richardson,Fairfield,77.66,138.35,74.84,127.01,340.19,Single-ply,SBD,F,
Girls,82.33,5,Guadalupe Garcia #1,Eustace,78.56,131.54,68.04,136.08,335.66,Single-ply,SBD,F,
Girls,82.33,6,Haley Henson,Maypearl,75.66,120.2,68.04,129.27,317.51,Single-ply,SBD,F,
Girls,82.33,7,Abby Smith,Beckville,76.11,117.93,58.97,131.54,308.44,Single-ply,SBD,F,
Girls,82.33,8,Briann Warner,Palmer,78.11,120.2,61.23,120.2,301.64,Single-ply,SBD,F,
Girls,82.33,9,Alydia Ditmore,Diana New Diana,79.92,108.86,63.5,115.67,288.03,Single-ply,SBD,F,
Girls,82.33,10,Rand Nseirat,Redwater,76.66,108.86,47.63,113.4,269.89,Single-ply,SBD,F,
Girls,82.33,DQ,Kianna Williams,Malakoff,79.74,,,,,Single-ply,SBD,F,
Girls,82.33,DQ,Maritza Quintero,Tatum,81.74,,,,,Single-ply,SBD,F,
Girls,90.04,1,Bailey Hughes #1,Quitman,82.64,158.76,79.38,140.61,378.75,Single-ply,SBD,F,
Girls,90.04,2,Karmen Searcy,Hughes Springs,83.55,124.74,90.72,154.22,369.68,Single-ply,SBD,F,
Girls,90.04,3,Chloe Meshell,Groveton,84.1,163.29,81.65,122.47,367.41,Single-ply,SBD,F,
Girls,90.04,4,Lexy Luby,Harleton,88.45,136.08,74.84,140.61,351.53,Single-ply,SBD,F,
Girls,90.04,5,Jewell Capps,Huntington,85.55,142.88,68.04,120.2,331.12,Single-ply,SBD,F,
Girls,90.04,6,Tiara Bailey,Kerens,85,122.47,63.5,136.08,322.05,Single-ply,SBD,F,
Girls,90.04,7,Emma Combs,Kerens,86.55,131.54,77.11,113.4,322.05,Single-ply,SBD,F,
Girls,90.04,8,Victoria Galvin,Diboll,84.28,133.81,52.16,124.74,310.71,Single-ply,SBD,F,
Girls,90.04,9,Reagan Shofner,Troup,89.54,120.2,54.43,136.08,310.71,Single-ply,SBD,F,
Girls,90.04,10,Camila Martinez,Palestine Westwood,86.45,129.27,61.23,117.93,308.44,Single-ply,SBD,F,
Girls,90.04,11,Skylar DeLa Rosa,Winnsboro,86.55,131.54,47.63,127.01,306.17,Single-ply,SBD,F,
Girls,90.04,12,Abby McGuire,Corsicana Mildred,88.72,122.47,56.7,108.86,288.03,Single-ply,SBD,F,
Girls,100.02,1,Jessica Saulters,Lone Oak,99.16,190.51,106.59,142.88,439.98,Single-ply,SBD,F,
Girls,100.02,2,Baylea Densman,Tatum,97.98,172.37,79.38,147.42,399.16,Single-ply,SBD,F,
Girls,100.02,3,Kylie Voelker,Groveton,95.53,158.76,70.31,151.95,381.02,Single-ply,SBD,F,
Girls,100.02,4,Tayla Calico,Gladewater Sabine,93.62,154.22,81.65,138.35,374.21,Single-ply,SBD,F,
Girls,100.02,5,Kaitlynn Strong,Kemp,94.08,145.15,88.45,136.08,369.68,Single-ply,SBD,F,
Girls,100.02,6,Shi Norris,Joaquin,95.25,138.35,56.7,151.95,347,Single-ply,SBD,F,
Girls,100.02,7,Stacy Perez,Grapeland,99.25,158.76,49.9,136.08,344.73,Single-ply,SBD,F,
Girls,100.02,8,Peyton Sartors,Overton,98.97,136.08,58.97,147.42,342.46,Single-ply,SBD,F,
Girls,100.02,9,Madison Brumit,Kerens,99.97,129.27,65.77,136.08,331.12,Single-ply,SBD,F,
Girls,100.02,10,Terrianna Slocum,Eustace,91.35,136.08,65.77,124.74,326.59,Single-ply,SBD,F,
Girls,100.02,11,Alexus Shurley,Diboll,95.07,136.08,61.23,127.01,324.32,Single-ply,SBD,F,
Girls,100.02,12,Virginia Romo,Eustace,90.08,113.4,72.57,111.13,297.1,Single-ply,SBD,F,
Girls,100.02,DQ,Emma England,Paris Chisum,98.7,147.42,,,,Single-ply,SBD,F,
Girls,117.71,1,Maya Huffman,Gladewater Union Grove,112.67,249.48,61.23,217.72,528.44,Single-ply,SBD,F,
Girls,117.71,2,Amber Burrow,Mount Vernon,103.33,185.97,99.79,158.76,444.52,Single-ply,SBD,F,
Girls,117.71,3,Brooklyn Henderson,Maud,106.41,158.76,90.72,142.88,392.36,Single-ply,SBD,F,
Girls,117.71,4,Emily Turney,Palmer,111.67,172.37,81.65,138.35,392.36,Single-ply,SBD,F,
Girls,117.71,5,Alice Billingsley,Kerens,113.58,145.15,81.65,136.08,362.87,Single-ply,SBD,F,
Girls,117.71,6,Genesis Allen,Daingerfield,107.14,127.01,77.11,142.88,347,Single-ply,SBD,F,
Girls,117.71,7,Jana Qualls,Dawson,101.97,140.61,61.23,129.27,331.12,Single-ply,SBD,F,
Girls,117.71,8,Jacinda Williams,Blooming Grove,104.42,122.47,95.25,113.4,331.12,Single-ply,SBD,F,
Girls,117.71,9,Laney Vanderburg,Paris Chisum,106.68,136.08,56.7,113.4,306.17,Single-ply,SBD,F,
Girls,117.71,10,Kaitlyn Garcia,White Oak,111.95,129.27,63.5,113.4,306.17,Single-ply,SBD,F,
Girls,117.71,11,Ahsley Harris,Fairfield,111.4,102.06,68.04,124.74,294.84,Single-ply,SBD,F,
Girls,117.71,12,Rebekah Aulds,Corsicana Mildred,110.31,102.06,68.04,108.86,278.96,Single-ply,SBD,F,
Girls,117.71,13,Maria Mendoza,Trinity,109.41,117.93,52.16,102.06,272.16,Single-ply,SBD,F,
Girls,117.71,DQ,Merand Hayes,Kemp,101.42,,,,,Single-ply,SBD,F,
Girls,117.71+,1,Kailyn Fisher,Trinity,129.46,231.33,113.4,195.04,539.77,Single-ply,SBD,F,
Girls,117.71+,2,Balie Tingle,Harleton,129.55,192.78,99.79,154.22,446.79,Single-ply,SBD,F,
Girls,117.71+,3,Kamryn Sparks,Grapeland,117.93,158.76,72.57,136.08,367.41,Single-ply,SBD,F,
Girls,117.71+,4,Arionna Davis,Grapeland,137.8,181.44,63.5,113.4,358.34,Single-ply,SBD,F,
Girls,117.71+,5,Emalee Hendry,New London West Rusk,151.23,149.69,61.23,117.93,328.85,Single-ply,SBD,F,
Girls,117.71+,6,Sidney Anderson,White Oak,124.01,136.08,65.77,122.47,324.32,Single-ply,SBD,F,
Girls,117.71+,7,Canaan Dillard,Groveton,129.18,113.4,72.57,124.74,310.71,Single-ply,SBD,F,
Girls,117.71+,8,Sierra Mathis,Elysian Fields,142.43,108.86,63.5,120.2,292.57,Single-ply,SBD,F,
Girls,117.71+,9,Bailee Comeaux,Diboll,134.54,120.2,56.7,106.59,283.5,Single-ply,SBD,F,
Girls,,NS,Macayla Parker,New Boston,,,,,,Single-ply,SBD,F,
Girls,,NS,Whitney Smith,New Boston,,,,,,Single-ply,SBD,F,
