Division,WeightClassKg,Place,Name,Team,BodyweightKg,Best3SquatKg,Best3BenchKg,Best3DeadliftKg,TotalKg,Equipment,Event,Sex,BirthDate
Boys,51.71,1,Cooper Talley,Quanah,49.35,90.72,49.9,108.86,249.48,Single-ply,SBD,M,
Boys,51.71,2,Koda Wood,Quanah,49.9,95.25,52.16,99.79,247.21,Single-ply,SBD,M,
Boys,55.79,1,Colton Benson,Clarendon,55.79,74.84,56.7,111.13,242.67,Single-ply,SBD,M,
Boys,59.87,1,Jasiah Castellon,Tulia,59.33,90.72,70.31,108.86,269.89,Single-ply,SBD,M,
Boys,67.13,1,Jason Kaufmann,Quanah,61.78,145.15,83.91,163.29,392.36,Single-ply,SBD,M,
Boys,67.13,2,Adam Hope,Quanah,61.69,136.08,74.84,147.42,358.34,Single-ply,SBD,M,
Boys,67.13,3,Owen Loveless,Quanah,64.41,124.74,74.84,136.08,335.66,Single-ply,SBD,M,
Boys,67.13,4,Ivan Garcia,Tulia,61.23,120.2,68.04,136.08,324.32,Single-ply,SBD,M,
Boys,67.13,5,Royce Rey,Tulia,65.5,99.79,70.31,129.27,299.37,Single-ply,SBD,M,
Boys,67.13,6,Noah Trammell,Tulia,60.51,86.18,68.04,138.35,292.57,Single-ply,SBD,M,
Boys,67.13,7,Jase Middleton,Memphis,62.69,102.06,47.63,117.93,267.62,Single-ply,SBD,M,
Boys,67.13,8,Raiden Brassfield,Quanah,67.13,81.65,68.04,102.06,251.74,Single-ply,SBD,M,
Boys,74.84,1,Troy Conner,Quanah,74.57,181.44,102.06,181.44,464.93,Single-ply,SBD,M,
Boys,74.84,2,Rhett Caison,Clarendon,73.12,142.88,104.33,161.03,408.23,Single-ply,SBD,M,
Boys,74.84,3,Lee Savage,Memphis,74.3,142.88,90.72,151.95,385.55,Single-ply,SBD,M,
Boys,74.84,4,Ethan Cato,Quanah,72.12,140.61,74.84,158.76,374.21,Single-ply,SBD,M,
Boys,74.84,5,Jared Musick,Clarendon,70.85,97.52,63.5,113.4,274.42,Single-ply,SBD,M,
Boys,82.1,1,Braydon Garcia,Quanah,82.1,188.24,124.74,217.72,530.7,Single-ply,SBD,M,
Boys,82.1,2,Bobby Luna,Childress,79.2,163.29,108.86,151.95,424.11,Single-ply,SBD,M,
Boys,82.1,3,Austin Bunn,Tulia,77.2,145.15,86.18,167.83,399.16,Single-ply,SBD,M,
Boys,82.1,4,Davin Mays,Clarendon,79.92,113.4,74.84,136.08,324.32,Single-ply,SBD,M,
Boys,82.1,5,Brayan Hernandez,Quanah,76.66,113.4,61.23,140.61,315.25,Single-ply,SBD,M,
Boys,89.81,1,Jax Ferrel,Memphis,82.74,183.7,138.35,206.38,528.44,Single-ply,SBD,M,
Boys,89.81,2,Ethan Ferguson,Childress,87.45,138.35,102.06,170.1,410.5,Single-ply,SBD,M,
Boys,89.81,3,Charlie Sepeda,Memphis,83.37,136.08,68.04,158.76,362.87,Single-ply,SBD,M,
Boys,89.81,4,Robert John Garcia,Tulia,87.18,113.4,70.31,136.08,319.78,Single-ply,SBD,M,
Boys,89.81,5,Ethan Warren,Clarendon,85.73,97.52,77.11,120.2,294.84,Single-ply,SBD,M,
Boys,89.81,DQ,David Espinosa,Memphis,89.81,,,,,Single-ply,SBD,M,
Boys,99.79,1,Jayden Weaver,Quanah,98.61,158.76,104.33,181.44,444.52,Single-ply,SBD,M,
Boys,99.79,2,Cj Call,Quanah,98.61,136.08,81.65,136.08,353.8,Single-ply,SBD,M,
Boys,109.77,1,Francisco Barrera,Quanah,109.68,204.12,117.93,158.76,480.81,Single-ply,SBD,M,
Boys,109.77,2,Andrew Barrios,Tulia,109.04,163.29,113.4,158.76,435.45,Single-ply,SBD,M,
Boys,109.77,3,Adrian Macias,Childress,100.43,136.08,92.99,142.88,371.95,Single-ply,SBD,M,
Boys,124.74,1,Troi Barrera,Quanah,117.03,158.76,104.33,181.44,444.52,Single-ply,SBD,M,
Boys,124.74,2,Xathen Chasco,Tulia,114.21,111.13,81.65,149.69,342.46,Single-ply,SBD,M,
Boys,124.74,3,Isaiah Speir,Childress,113.31,111.13,74.84,147.42,333.39,Single-ply,SBD,M,
Boys,139.71,1,Blake Martinez,Childress,126.19,52.16,58.97,92.99,204.12,Single-ply,SBD,M,
Boys,139.71+,1,Jimmy Ayala,Childress,141.79,226.8,113.4,204.12,544.31,Single-ply,SBD,M,
