Name,WeightClassKg,Division,Best3SquatKg,Best3BenchKg,Best3DeadliftKg,TotalKg,Sex,Event,Equipment,Place,Team
Desirae Arelliano,52,F-O,95.25,61.23,142.88,299.37,F,SBD,Single-ply,1,
Paula Houston,75,F-O,154.22,83.91,170.1,408.23,F,SBD,Single-ply,1,
Bonnie Cromwell,67.5,F-M3,92.99,49.9,106.59,249.48,F,SBD,Single-ply,1,
Leah Smith,75,F-M3,65.77,47.63,92.99,206.38,F,SBD,Single-ply,1,
Faith Ireland,60,F-M5,88.45,56.7,108.86,254.01,F,SBD,Single-ply,1,
Sharee Olsen,60,F-M5,92.99,40.82,108.86,242.67,F,SBD,Single-ply,2,
Juliana Van Kolck,56,F-T1,68.04,36.29,102.06,206.38,F,SBD,Single-ply,1,
Desirae Arelliano,52,F-Jr,95.25,61.23,142.88,299.37,F,SBD,Single-ply,1,
