Division,WeightClassKg,Place,Name,Team,BodyweightKg,Best3SquatKg,Best3BenchKg,Best3DeadliftKg,TotalKg,Equipment,Event,Sex,BirthDate
Boys,51.71,1,Heath Schlottman,Mount Vernon,51.71,145.15,86.18,156.49,387.82,Single-ply,SBD,M,
Boys,55.79,1,Mariano Lara-Manriquez,Quitman,54.3,145.15,90.72,151.95,387.82,Single-ply,SBD,M,
Boys,55.79,2,Jack Miller,Grand Saline,55.34,106.59,72.57,120.2,299.37,Single-ply,SBD,M,
Boys,59.87,1,Jack Turner,Lone Oak,57.52,115.67,63.5,111.13,290.3,Single-ply,SBD,M,
Boys,67.13,1,Alonzo Torres,Mount Vernon,65.86,142.88,97.52,158.76,399.16,Single-ply,SBD,M,
Boys,74.84,1,Ethan Forte,Lone Oak,68.4,226.8,111.13,190.51,528.44,Single-ply,SBD,M,
Boys,74.84,2,Wyatt Hightower,Quitman,73.84,204.12,133.81,174.63,512.56,Single-ply,SBD,M,
Boys,74.84,3,Forlan Ramos,Mount Vernon,72.3,136.08,86.18,163.29,385.55,Single-ply,SBD,M,
Boys,74.84,4,Sebastian Letterman,Quitman,74.53,95.25,72.57,147.42,315.25,Single-ply,SBD,M,
Boys,82.1,1,Joel Martinez,Mount Vernon,81.56,185.97,129.27,190.51,505.76,Single-ply,SBD,M,
Boys,82.1,2,Jd Songer,Lone Oak,80.83,190.51,88.45,183.7,462.66,Single-ply,SBD,M,
Boys,82.1,3,Juan Ramos,Mount Vernon,80.74,165.56,106.59,170.1,442.25,Single-ply,SBD,M,
Boys,82.1,4,Charlie Matthews,Quitman,80.33,133.81,72.57,111.13,317.51,Single-ply,SBD,M,
Boys,82.1,5,Thomas Clifton,Grand Saline,76.66,79.38,47.63,90.72,217.72,Single-ply,SBD,M,
Boys,82.1,DQ,Bryce Holland,Grand Saline,76.66,158.76,,,,Single-ply,SBD,M,
Boys,89.81,1,Gage Mauch,Lone Oak,82.69,251.74,142.88,233.6,628.23,Single-ply,SBD,M,
Boys,89.81,2,Caden Hoefar,Lone Oak,87.63,213.19,117.93,201.85,532.97,Single-ply,SBD,M,
Boys,89.81,3,Wade Rouser,Lone Oak,89.72,213.19,127.01,188.24,528.44,Single-ply,SBD,M,
Boys,89.81,4,Daniel Grant,Grand Saline,86.18,90.72,61.23,95.25,247.21,Single-ply,SBD,M,
Boys,99.79,1,Payton Rainbolt,Lone Oak,95.44,174.63,113.4,136.08,424.11,Single-ply,SBD,M,
Boys,99.79,2,Robert Hamby,Grand Saline,99.79,172.37,90.72,151.95,415.04,Single-ply,SBD,M,
Boys,99.79,3,Connor Pascarell,Mount Vernon,91.35,147.42,72.57,170.1,390.09,Single-ply,SBD,M,
Boys,99.79,4,Brayden Skelton,Mount Vernon,92.99,142.88,88.45,140.61,371.95,Single-ply,SBD,M,
Boys,109.77,1,Corbin Brantly,Mount Vernon,109.41,204.12,147.42,197.31,548.85,Single-ply,SBD,M,
Boys,109.77,2,Caleb Amaya,Grand Saline,101.6,190.51,113.4,197.31,501.22,Single-ply,SBD,M,
Boys,109.77,3,Brayden Patterson,Lone Oak,100.7,172.37,77.11,154.22,403.7,Single-ply,SBD,M,
Boys,109.77,4,Kaleb Noe,Grand Saline,102.97,90.72,68.04,111.13,269.89,Single-ply,SBD,M,
Boys,124.74,1,Jaden Luhn,Lone Oak,111.86,288.03,142.88,204.12,635.03,Single-ply,SBD,M,
Boys,124.74,2,Johnata Jones,Quitman,114.49,256.28,138.35,226.8,621.42,Single-ply,SBD,M,
Boys,124.74,DQ,Alex Salazar,Grand Saline,124.28,199.58,106.59,,,Single-ply,SBD,M,
Boys,139.71,1,Quinton Johnson,Mount Vernon,134.54,244.94,147.42,242.67,635.03,Single-ply,SBD,M,
Boys,139.71,2,Derek Patterson,Lone Oak,129.46,285.76,120.2,197.31,603.28,Single-ply,SBD,M,
Boys,139.71,3,Hayden Batchelder,Quitman,126.1,235.87,122.47,188.24,546.58,Single-ply,SBD,M,
