Name,BirthDate,Sex,Equipment,Division,BodyweightKg,WeightClassKg,Team,Squat1Kg,Squat2Kg,Squat3Kg,Squat4Kg,Best3SquatKg,Bench1Kg,Bench2Kg,Bench3Kg,Bench4Kg,Best3BenchKg,Deadlift1Kg,Deadlift2Kg,Deadlift3Kg,Deadlift4Kg,Best3DeadliftKg,TotalKg,Event,Place
Diana Vallinotto,,F,Raw,SubM,42.3,44,,,,,,,62.5,65.5,-67.5,,65.5,,,,,,65.5,B,1
Natalia Ballesteros,,F,Raw,OP,58,60,,,,,,,50.5,55,57.5,,57.5,,,,,,57.5,B,1
Kaina Delgado,,F,Raw,Jun,69,75,,,,,,,90,95,-100,,95,,,,,,95,B,1
Dario Almada,,M,Raw,M2,58,60,,,,,,,35,45,-55,,45,,,,,,45,B,1
Hector Canabiri,,M,Raw,SubM,70.5,75,,,,,,,120,130,135,,135,,,,,,135,B,1
Javier Tafettani,,M,Raw,SubM,81,82.5,,,,,,,140,145,-150,,145,,,,,,145,B,1
Luis Bentaverri,,M,Raw,M1,80,82.5,,,,,,,150,160,-165,,160,,,,,,160,B,1
Franco Poplasky,,M,Raw,OP,88,90,,,,,,,120,-130,130,,130,,,,,,130,B,2
Marco Di Santo,,M,Raw,OP,89.1,90,,,,,,,150,155,-160,,155,,,,,,155,B,1
Geremias Reinoso,,M,Raw,SubM,84.5,90,,,,,,,90,-92.5,92.5,,92.5,,,,,,92.5,B,1
Gustavo Almada,,M,Raw,OP,97,100,,,,,,,175,-190.5,-190.5,,175,,,,,,175,B,1
Daniel Muller,,M,Raw,M2,91.3,100,,,,,,,120,130,,,130,,,,,,130,B,1
Carlos Garelli,,M,Single-ply,M2,100,100,,,,,,,100,-110,,,100,,,,,,100,B,1
Marcelo Wagner,,M,Raw,M3,100,100,,,,,,,140,145,150,,150,,,,,,150,B,1
Amado Monzon,,M,Raw,M3,102.7,110,,,,,,,100,110,120,,120,,,,,,120,B,1
Walter Echeverria,,M,Raw,M2,107.4,110,,,,,,,-160,160,170,,170,,,,,,170,B,1
Gaston Bersia,,M,Raw,SubM,149.5,140+,,,,,,,205,210,215,,215,,,,,,215,B,1
Diana Vallinotto,,F,Raw,SubM,42.3,44,,,,,,,62.5,65.5,-67.5,,65.5,120,130,140.5,,140.5,206,BD,1
Gabriela Cafardo,,F,Raw,OP,51,52,,,,,,,25,35,37.5,,37.5,75,95,100,,100,137.5,BD,1
Sonia Sarapura,,F,Raw,M1,54.9,56,,,,,,,35,-40,-40,,35,90,105,115,,115,150,BD,1
Griselda Soler,,F,Raw,M3,56,56,,,,,,,55,62.5,65,,65,115,122.5,127.5,,127.5,192.5,BD,1
Soledad Uris,,F,Raw,Jun,58.8,60,,,,,,,42.5,47.5,-50,,47.5,132.5,140,147.5,,147.5,195,BD,2
Soledad Chauqui,,F,Raw,Jun,58.6,60,,,,,,,50,-60,-60,,50,135,140,148,,148,198,BD,1
Eliana Quiroga,,F,Raw,OP,56.8,60,,,,,,,35,40,-42.5,,40,90,105,115,,115,155,BD,2
Natalia Ballesteros,,F,Raw,OP,58,60,,,,,,,50,55,57.5,,57.5,125,130,135,,135,192.5,BD,1
Analia Muñoz,,F,Raw,M1,62,67.5,,,,,,,50,55,-62.5,,55,110,-120,120,,120,175,BD,1
Analia Madalena,,F,Raw,M1,65,67.5,,,,,,,30,35,40,,40,80,92.5,105,,105,145,BD,2
Vilma De La Rocha,,F,Raw,M2,65.9,67.5,,,,,,,45,-50,-50,,45,85,90,100,,100,145,BD,1
Kaina Delgado,,F,Raw,Jun,69,75,,,,,,,90,95,-100,,95,140,145,150,,150,245,BD,1
Carolina Cuello,,F,Raw,OP,75,75,,,,,,,75,82.5,90,,90,140,155,170,,170,260,BD,1
Cecilia Gilabert,,F,Raw,M2,67.6,75,,,,,,,45,-47.5,-47.5,,45,90,105,115,,115,160,BD,1
Eliana Ledesma,,F,Raw,SubM,79.8,82.5,,,,,,,90,97.5,102.5,,102.5,160,172.5,175,,175,277.5,BD,1
Martin Magno,,M,Raw,T1,58.1,60,,,,,,,50,-57.5,57.5,,57.5,135,140,-145,,140,197.5,BD,1
Jesus Leyes,,M,Raw,M2,59.6,60,,,,,,,80,-85,-85,,80,125,130,135,,135,215,BD,1
Tomas Cipriano,,M,Raw,T3,57.8,60,,,,,,,40,47.5,52.5,,52.5,100,110,120,,120,172.5,BD,1
Enrique Arjona,,M,Raw,T4,67.3,67.5,,,,,,,60,70,-72.5,,70,100,110,120,,120,190,BD,2
Ramiro Barros,,M,Raw,T4,66.7,67.5,,,,,,,115,130,-135,,130,210,230,240,,240,370,BD,1
Rafael Castro,,M,Raw,Jun,66.2,67.5,,,,,,,85,95,105,,105,155,165,172.5,,172.5,277.5,BD,1
Agustin Fernandez,,M,Raw,Jun,65.3,67.5,,,,,,,85,-90,-90,,85,180,185,-187.5,,185,270,BD,2
Malco Leyes,,M,Raw,OP,67.1,67.5,,,,,,,60,65,-67.5,,65,110,115,125,,125,190,BD,1
Juan Galeano,,M,Raw,T4,72.5,75,,,,,,,-65,65,75,,75,130,140,-150,,140,215,BD,1
Fernando Luna,,M,Raw,T2,67.9,75,,,,,,,-35,37.5,-40,,37.5,90,100,110,,110,147.5,BD,1
Cristian Alvarez,,M,Raw,Jun,69.2,75,,,,,,,80,95,-107.5,,95,160,-170,-170,,160,255,BD,2
Juan Campostrini,,M,Raw,Jun,75,75,,,,,,,95,-100,-100,,95,185,195,-205,,195,290,BD,1
Gianfranco Ochionero,,M,Raw,OP,72,75,,,,,,,75,80,85,,85,150,160,165,,165,250,BD,1
Hector Canabiri,,M,Raw,SubM,70.5,75,,,,,,,120,130,135,,135,130,145,155,,155,290,BD,2
Gabriel Pizzo,,M,Raw,SubM,74,75,,,,,,,120,127.5,132.5,,132.5,160,180,190,,190,322.5,BD,1
Santiago Ardissono,,M,Raw,M1,74.2,75,,,,,,,95,100,107.5,,107.5,175,190,200,,200,307.5,BD,1
Lautaro Aichino,,M,Raw,Jun,80.3,82.5,,,,,,,-80,90,-95,,90,140,150,160,,160,250,BD,1
Emanuel Murias,,M,Raw,OP,78.8,82.5,,,,,,,85,90,-92.5,,90,165,180,185,,185,275,BD,2
Damian Gomez,,M,Raw,OP,79.9,82.5,,,,,,,150,155,-165,,155,220,230,-240,,230,385,BD,1
Marcos Toconas,,M,Raw,SubM,81.2,82.5,,,,,,,125,135,-137.5,,135,210,-222.5,222.5,,222.5,357.5,BD,1
Hugo Buiani,,M,Raw,M2,79,82.5,,,,,,,90,-100,105,,105,140,150,160,,160,265,BD,1
Gabriel Teseyra,,M,Raw,T3,82.5,82.5,,,,,,,80,95,-105,,95,190,195,200,,200,295,BD,1
Facundo Rodriguez,,M,Raw,T3,85.5,90,,,,,,,145,150,-155,,150,200,-215,215,,215,365,BD,1
Pedro Vale,,M,Raw,T4,87.6,90,,,,,,,80,90,-105,,90,160,180,-200,,180,270,BD,1
Franco Poplawsky,,M,Raw,OP,88,90,,,,,,,120,-130,130,,130,200,210,-220,,210,340,BD,3
Marcos Di Santo,,M,Raw,OP,89.1,90,,,,,,,150,155,-160.5,,155,205,215,-227.5,,215,370,BD,2
Ramon Diaz,,M,Raw,OP,88,90,,,,,,,140,145,-157.5,,145,230,235,-237.5,,235,380,BD,1
Norman Cipriano,,M,Raw,M2,89.6,90,,,,,,,90,100,105,,105,180,200,215,,215,320,BD,1
Jorge Franco,,M,Single-ply,M2,86,90,,,,,,,160,162.5,,,162.5,190,210,230,,230,392.5,BD,1
Sebastian Videla,,M,Raw,M1,94.3,100,,,,,,,120,130,-137.5,,130,200,215,225,,225,355,BD,1
Daniel Muller,,M,Raw,M2,91.3,100,,,,,,,120,130,,,130,150,170,,,170,300,BD,2
Julio Martinez,,M,Raw,M2,91.2,100,,,,,,,110,115,120,,120,200,225,-227.5,,225,345,BD,1
Santiago Chacon,,M,Raw,T2,119.2,125,,,,,,,40,60,-62.5,,60,135,140,155,,155,215,BD,2
Fernando Amaro,,M,Raw,T2,122,125,,,,,,,-60,70,-72.5,,70,140,-150,155,,155,225,BD,1
Joaquín Díaz,,M,Raw,T4,124.8,125,,,,,,,-125,125,135,,135,220,240,250,,250,385,BD,1
Diana Vallinoto,,F,Raw,OP,42.3,44,,,,,,,,,,,,120,130,140.5,,140.5,140.5,D,1
Paulina Esquivel,,F,Raw,OP,56,56,,,,,,,,,,,,80,87.5,95,,95,95,D,1
Soledad Chauqui,,F,Raw,OP,60,60,,,,,,,,,,,,135,140,147.5,,147.5,147.5,D,1
Elsa Ines Gregorio,,F,Raw,M4,82.5,82.5,,,,,,,,,,,,-80,80,95,,95,95,D,1
Agustin Fernandez,,M,Raw,Jun,67.5,67.5,,,,,,,,,,,,180,185,-187.5,,185,185,D,1
Juan Campostrini,,M,Raw,Jun,75,75,,,,,,,,,,,,185,195,-205,,195,195,D,1
Jonatan Moran,,M,Raw,Jun,75,75,,,,,,,,,,,,130,140,155,,155,155,D,2
Marco Toconas,,M,Raw,SubM,81.2,82.5,,,,,,,,,,,,210,-222.5,222.5,,222.5,222.5,D,1
Marcelo Lobo,,M,Raw,M2,79.2,82.5,,,,,,,,,,,,200,220,240,,240,240,D,1
Sergio Cousau,,M,Raw,M3,82,82.5,,,,,,,,,,,,160,180,190,,190,190,D,1
Franco Poplasky,,M,Raw,OP,88,90,,,,,,,,,,,,200,210,-220,,210,210,D,1
Ezequiel Saez,,M,Raw,SubM,87.4,90,,,,,,,,,,,,220,225,230,,230,230,D,1
Alejandro Lamperti,,M,Single-ply,M2,85.7,90,,,,,,,,,,,,200,212,217,,217,217,D,1
Dante Carlino,,M,Raw,M8,95,100,,,,,,,,,,,,190,200,215,,215,215,D,1
Mariano Miravalles,,M,Raw,M1,94.1,100,,,,,,,,,,,,250,260,270,,270,270,D,1
Adrian Baltasar,,M,Raw,M1,109.7,110,,,,,,,,,,,,170,180,200,,200,200,D,1
Julio Peralta,,M,Raw,OP,131.7,140,,,,,,,,,,,,-180,-180,180,,180,180,D,1
Alfredo Martín Rojas,,M,Raw,SubM,131.5,140,,,,,,,,,,,,300,-315,-315,,300,300,D,1
Alejandro Lamperti,,M,Single-ply,M2,85.7,90,Buenos Aires,,,,,,,,,,,200,212,217,,217,217,D,2
Dante Carlino,,M,Raw,M8,95,100,Buenos Aires,,,,,,,,,,,190,200,215,,215,215,D,2
Mariano Miravalles,,M,Raw,M1,94.1,100,Buenos Aires,,,,,,,,,,,250,260,270,,270,270,D,2
Adrian Baltasar,,M,Raw,M1,109.7,110,San Luis,,,,,,,,,,,170,180,200,,200,200,D,2
Julio Peralta,,M,Raw,OP,131.7,140,Salta,,,,,,,,,,,-180,-180,180,,180,180,D,2
Alfredo Martín Rojas,,M,Raw,SubM,131.5,140,San Luis,,,,,,,,,,,300,-315,-315,,300,300,D,2
