Sex,WeightClassKg,EntryDate,Name,Country,BirthDate,BodyweightKg,Best3BenchKg,TotalKg,Event,Equipment,Division,Place
M,49,2013-02-23,Patrick Jean Ardon,France,1983-04-27,47.5,142,142,B,Raw,Open,3
M,49,2013-02-23,Taha Adel Mohamed Abdelmajid,Egypt,1987-06-08,47.7,162,162,B,Raw,Open,2
M,49,2013-02-23,Nándor Tunkel,Hungary,1988-04-08,45.1,130,130,B,Raw,Open,4
F,41,2013-02-23,Tatiana Zhavoronkova,Russia,1990-11-18,,,,B,Raw,Open,NS
F,41,2013-02-23,Nawal Ramadan,Egypt,1992-04-08,40.75,86,86,B,Raw,Open,1
F,41,2013-02-23,Eberechukwu Roseline Tasie,Nigeria,1993-04-27,40.15,85,85,B,Raw,Open,2
F,41,2013-02-23,Nargiza Khamdamova,Uzbekistan,1994-03-10,40.15,,,B,Raw,Open,DQ
F,41,2013-02-23,Olessya Barashkina,Kazakhstan,1987-01-31,40.35,,,B,Raw,Open,DQ
F,45,2013-02-23,Oduenyi Ivory Nwokorie,Nigeria,1979-03-18,44.45,100,,B,Raw,Open,DD
F,45,2013-02-23,Zeinab Oteify,Egypt,1978-08-08,43.8,95,95,B,Raw,Open,1
F,50,2013-02-23,Olga Prokopishina,Kazakhstan,1987-03-05,49.05,,,B,Raw,Open,DQ
F,50,2013-02-23,Rehab Ahmed,Egypt,1991-03-02,48.4,90,90,B,Raw,Open,1
F,50,2013-02-23,Ruza Kuzieva,Uzbekistan,1994-03-12,45.65,52,,B,Raw,Open,DD
F,50,2013-02-23,Kabira Askarova,Kazakhstan,1976-09-29,47.5,65,65,B,Raw,Open,2
F,55,2013-02-23,Gulbanu Abdykhalykova,Kazakhstan,1972-09-15,53.35,70,70,B,Raw,Open,3
F,55,2013-02-23,Ganiyatu Joy Onaolapo,Nigeria,1982-12-24,50.8,101,101,B,Raw,Open,2
F,55,2013-02-23,Gihan Abdelaziz,Egypt,1974-10-29,51.2,102,102,B,Raw,Open,1
M,49,2013-02-23,Taha Adel Mohamed Abdelmajid,Egypt,1987-06-08,47.7,165,165,B,Raw,Open,1
M,54,2013-02-24,Yakubu Adesokan,Nigeria,1979-07-16,51.15,165,165,B,Raw,Open,2
M,54,2013-02-24,Mekan Agalikov,Turkmenistan,1988-09-28,52.3,145,145,B,Raw,Open,4
M,54,2013-02-24,Paschalis Kouloumoglou,Greece,1994-11-03,50.15,127,127,B,Raw,Open,5
M,54,2013-02-24,Sławomir Szymański,Poland,1985-03-19,49.65,126,126,B,Raw,Open,6
M,54,2013-02-24,Sherif Osman,Egypt,1982-09-15,53.55,181,181,B,Raw,Open,1
M,54,2013-02-24,Dimitrios Bakochristos,Greece,1983-04-16,51.4,145,145,B,Raw,Open,3
M,59,2013-02-24,Tharwat Ahmed Elsadek Ali,Egypt,1980-07-01,58.9,170,170,B,Raw,Open,2
M,59,2013-02-24,Sergey Shtaper,Kazakhstan,1976-10-06,54.5,115,115,B,Raw,Open,3
M,59,2013-02-24,Husain Sawar,Brunei,1989-01-09,58.6,,,B,Raw,Open,DQ
M,65,2013-02-24,Saif Mohamed Zaabi,UAE,1979-08-30,63.6,120,120,B,Raw,Open,2
M,65,2013-02-24,Sergey Meladze,Turkmenistan,1980-04-01,63.6,177,177,B,Raw,Open,1
M,65,2013-02-24,Gholam Khorshid Rahiminia,UAE,1972-08-28,63.75,120,120,B,Raw,Open,3
F,61,2013-02-24,Tamara Podpalnaya,Russia,1972-01-03,56.7,117,117,B,Raw,Open,1
F,61,2013-02-24,Hannah Toremar,UK,1984-03-20,59.25,45,45,B,Raw,Open,4
F,61,2013-02-24,Valentina Zavarayeva,Turkmenistan,1987-01-25,58.95,95,95,B,Raw,Open,2
F,61,2013-02-24,Menatallah Elsayed,Egypt,1989-01-25,59.35,92,92,B,Raw,Open,3
F,67,2013-02-24,Amal Mahmoud Hanafy Mahmoud,Egypt,1978-10-21,64.15,119,119,B,Raw,Open,1
F,73,2013-02-24,Amany Ali,Egypt,1976-03-02,72.45,116,116,B,Raw,Open,3
F,73,2013-02-24,Haifa Naqbi,UAE,1981-08-12,72.95,80,80,B,Raw,Open,5
F,73,2013-02-24,Arawan Bootpo,Thailand,1984-10-10,69.05,107,107,B,Raw,Open,4
F,73,2013-02-24,Souhad Ghazouani,France,1982-08-07,72.3,140,140,B,Raw,Open,2
M,59,2013-02-24,Tharwat Ahmed Elsadek Ali,Egypt,1980-07-01,58.9,173,173,B,Raw,Open,1
F,73,2013-02-24,Souhad Ghazouani,France,1982-08-07,72.3,148,148,B,Raw,Open,1
M,72,2013-02-25,Shaban Yehia Ibrahim,Egypt,1975-09-14,65.2,185,185,B,Raw,Open,3
M,72,2013-02-25,Grzegorz Lanzer,Poland,1986-04-27,65.3,157,157,B,Raw,Open,6
M,72,2013-02-25,Kevin Pumpa,Austria,1991-10-21,66.8,,,B,Raw,Open,DQ
M,72,2013-02-25,Ruslan Dolobayev,Kazakhstan,1974-08-10,68.6,144,144,B,Raw,Open,9
M,72,2013-02-25,Mohamed Sobhy Shaaban Elelfat,Egypt,1979-06-25,71,207,207,B,Raw,Open,2
M,72,2013-02-25,Nabil Karim Joneidi,UAE,1981-01-21,71.5,155,155,B,Raw,Open,7
M,72,2013-02-25,Rakhmetzhan Khamayev,Kazakhstan,1986-11-25,70.6,152,152,B,Raw,Open,8
M,72,2013-02-25,Kampa Pongtao,Thailand,1977-11-02,66.6,175,175,B,Raw,Open,5
M,72,2013-02-25,Ifeanyi Chinonso Nnajiofor,Nigeria,1973-01-03,69.7,176,176,B,Raw,Open,4
M,72,2013-02-25,Adel Shanbih,UAE,1989-12-13,71,120,120,B,Raw,Open,10
M,80,2013-02-25,Vladimir Cherepanov,Kazakhstan,1990-01-23,79.2,,,B,Raw,Open,DQ
M,80,2013-02-25,Michael Yule,UK,1978-12-24,73.8,176,176,B,Raw,Open,4
M,80,2013-02-25,Abdalla Alnaqbi,UAE,1991-07-01,75.1,,,B,Raw,Open,DQ
M,80,2013-02-25,Abdelkhalek Abdelkhalek,Egypt,1982-11-30,76.4,205,205,B,Raw,Open,2
M,80,2013-02-25,Nathan Macqueen,UK,1991-06-24,75.05,115,115,B,Raw,Open,8
M,80,2013-02-25,Saeed Mohammed Almehri,UAE,1976-12-27,77.1,110,110,B,Raw,Open,9
M,80,2013-02-25,Prasit Thongdee,Thailand,1981-11-19,77.7,177,177,B,Raw,Open,3
M,80,2013-02-25,Abdulbaset Sheta,Libya,1968-02-16,76,145,145,B,Raw,Open,7
M,80,2013-02-25,James Siaffa,Liberia,1980-04-24,75.4,150,150,B,Raw,Open,6
M,80,2013-02-25,Bayramgeldi Saparov,Turkmenistan,1972-11-18,79.15,160,160,B,Raw,Open,5
M,88,2013-02-25,Rashed Hassan Ahmed,UAE,1980-10-10,84.6,145,145,B,Raw,Open,6
M,88,2013-02-25,Abdulrraziq Albaebaa,Libya,1974-01-20,82.8,160,160,B,Raw,Open,5
M,88,2013-02-25,Abdulla Alhammadi,UAE,1984-02-02,87.3,100,100,B,Raw,Open,7
M,88,2013-02-25,Hamad Alashar,Brunei,1995-09-28,80.2,90,90,B,Raw,Open,8
M,88,2013-02-25,Patrique Dankers,Netherlands,1976-11-06,83.3,179,179,B,Raw,Open,2
M,88,2013-02-25,Spartak Ramazanov,Turkmenistan,1983-02-02,86,172,172,B,Raw,Open,3
M,88,2013-02-25,Janet Zhakiyen,Kazakhstan,1967-07-26,85.2,161,161,B,Raw,Open,4
M,88,2013-02-25,Oleg Gridassov,Kazakhstan,1980-08-14,85,,,B,Raw,Open,DQ
M,88,2013-02-25,Anastasios Baos,Greece,1986-12-23,86.6,,,B,Raw,Open,DQ
M,72,2013-02-25,Mohamed Sobhy Shaaban Elelfat,Egypt,1979-06-25,71,210,210,B,Raw,Open,1
M,80,2013-02-25,Abdelkhalek Abdelkhalek,Egypt,1982-11-30,76.4,210,210,B,Raw,Open,1
M,88,2013-02-25,Patrique Dankers,Netherlands,1976-11-06,83.3,180,180,B,Raw,Open,1
M,97,2013-02-26,Mohamed Mamdouh Aly Eldib,Egypt,1979-01-07,94.9,240,240,B,Raw,Open,1
M,97,2013-02-26,Essam Kharir,Libya,1973-11-21,93.6,150,150,B,Raw,Open,3
M,97,2013-02-26,Toninho Norden,Netherlands,1987-12-18,91.3,130,130,B,Raw,Open,4
M,97,2013-02-26,Thaer Al-Ali,Iraq,1976-01-03,92.7,220,220,B,Raw,Open,2
F,79,2013-02-26,Sahar El-Gnemi,Libya,1981-01-12,77.55,90,90,B,Raw,Open,3
F,79,2013-02-26,Marzena Zieba,Poland,1990-03-27,77.89,97,97,B,Raw,Open,2
F,79,2013-02-26,Alice Folashade Oluwafemiayo,Nigeria,1985-03-11,78.8,125,,B,Raw,Open,DD
F,79,2013-02-26,Gehan Hassan,Egypt,1972-06-13,74.1,117,117,B,Raw,Open,1
F,79,2013-02-26,Lyazat Salimzhanova,Kazakhstan,1961-08-28,75.5,85,85,B,Raw,Open,4
F,79,2013-02-26,Badreya Alhosani,UAE,1980-10-29,73.1,40,40,B,Raw,Open,5
F,86,2013-02-26,Randa Mahmoud,Egypt,1987-08-20,85.85,130,130,B,Raw,Open,3
F,86,2013-02-26,Loveline Adaure Obiji,Nigeria,1990-09-11,83.5,139,139,B,Raw,Open,2
F,86+,2013-02-26,Precious Orji,Nigeria,1979-04-08,123.15,142,142,B,Raw,Open,1
F,86+,2013-02-26,Ghazalah Alaqouri,Libya,1973-06-08,99.8,92,92,B,Raw,Open,3
F,86+,2013-02-26,Nadia Ali,Egypt,1974-07-27,100.8,132,132,B,Raw,Open,2
F,86,2013-02-26,Loveline Adaure Obiji,Nigeria,1990-09-11,83.5,140,140,B,Raw,Open,1
M,107,2013-02-27,Elshan Huseynov,Azerbaijan,1977-11-21,102.8,230,230,B,Raw,Open,2
M,107,2013-02-27,Faris Saadoon Abed Al-Ageeli,Iraq,1974-05-20,106.6,232,232,B,Raw,Open,1
M,107,2013-02-27,Ibrahim Almusaabi,UAE,1995-04-25,101.3,70,70,B,Raw,Open,5
M,107,2013-02-27,Abdulla Ahmed Aldhanhani,UAE,1979-01-02,105.6,178,178,B,Raw,Open,4
M,107,2013-02-27,Mohamed Yousief,Egypt,1980-03-29,100.75,207,207,B,Raw,Open,3
M,107+,2013-02-27,Walid Abdulrahman Raeialboom,UAE,1986-05-16,116.3,162,162,B,Raw,Open,4
M,107+,2013-02-27,Mohamed Nasr,Brunei,1976-01-01,114.9,130,130,B,Raw,Open,5
M,107+,2013-02-27,Maharram Aliyev,Azerbaijan,1964-01-15,150,213,213,B,Raw,Open,1
M,107+,2013-02-27,Csaba Szavai,Hungary,1957-12-21,132.5,200,200,B,Raw,Open,3
M,107+,2013-02-27,Petr Filatov,Russia,1988-06-20,156.4,202,202,B,Raw,Open,2
