Place,Name,CyrillicName,BirthYear,BodyweightKg,Bench1Kg,Bench2Kg,Bench3Kg,Best3BenchKg,WeightClassKg,Event,Equipment,Division,Sex,TotalKg,BirthDate
1,Mariya Burova,Мария Бурова,1995,46.80,-72.5,72.5,,72.5,47,B,Single-ply,Open,F,72.5,
2,Elena Bogachuk,Елена Богачук,1998,45.30,-35,-35,35,35,47,B,Single-ply,Open,F,35.0,
3,Anastasiya Barletova,Анастасия Барлетова,2001,46.80,22.5,25,27.5,27.5,47,B,Single-ply,Open,F,27.5,
1,Irina Verkholamova,Ирина Верхоламова,1981,52.00,60,65,70,70,52,B,Single-ply,Open,F,70.0,
2,Vladelina Asoeva,Владелина Асоева,1999,49.40,47.5,50,52.5,52.5,52,B,Single-ply,Open,F,52.5,
3,Tatyana Bazarbaeva,Татьяна Базарбаева,1999,50.30,47.5,50,52.5,52.5,52,B,Single-ply,Open,F,52.5,
4,Anastasiya Tikhomirova,Анастасия Тихомирова,1997,52.00,45,47.5,-55,47.5,52,B,Single-ply,Open,F,47.5,
5,Ekaterina Maksimova,Екатерина Максимова,2000,50.40,27.5,32.5,-37.5,32.5,52,B,Single-ply,Open,F,32.5,
1,Natalya Goleva,Наталья Гольева,1985,56.70,-62.5,67.5,-75,67.5,57,B,Single-ply,Open,F,67.5,
2,Natalya Ustinova,Наталья Устинова,1996,56.10,60,-67.5,-75,60,57,B,Single-ply,Open,F,60.0,
3,Daniela Gerasimova,Даниэла Герасимова,1999,55.40,52.5,-55,57.5,57.5,57,B,Single-ply,Open,F,57.5,
4,Svetlana Sharpilova,Светлана Шарпилова,2001,56.70,40,42.5,-45,42.5,57,B,Single-ply,Open,F,42.5,
1,Lusine Khachaturyan,Лусинэ Хачатурян,1996,61.80,75,77.5,80,80,63,B,Single-ply,Open,F,80.0,
2,Elena Semkina,Елена Семкина,1998,61.10,52.5,57.5,-60,57.5,63,B,Single-ply,Open,F,57.5,
1,Anastasiya Yatsko,Анастасия Яцко,1994,64.30,95,105,110,110,72,B,Single-ply,Open,F,110.0,
2,Zhanna Martynova,Жанна Мартынова,1966,63.30,77.5,-80,-80,77.5,72,B,Single-ply,Open,F,77.5,
3,Anastasiya Barkashova,Анастасия Баркашова,2001,64.70,50,-55,57.5,57.5,72,B,Single-ply,Open,F,57.5,
4,Elena Verkholamova,Елена Верхоламова,1973,64.90,37.5,40,-42.5,40,72,B,Single-ply,Open,F,40.0,
1,Galina Tsukanova,Галина Цуканова,1964,75.20,50,55,-60,55,84,B,Single-ply,Open,F,55.0,
2,Mariya Anikeeva,Мария Аникеева,1994,78.60,40,45,-47.5,45,84,B,Single-ply,Open,F,45.0,
1,Nargiz Isaeva,Наргиз Исаева,1990,94.10,75,82.5,92.5,92.5,84+,B,Single-ply,Open,F,92.5,
2,Tatyana Podolskaya,Татьяна Подольская,1971,87.10,65,70,-72.5,70,84+,B,Single-ply,Open,F,70.0,
1,Ilya Marichev,Илья Маричев,2001,54.10,100,110,112.5,112.5,59,B,Single-ply,Open,M,112.5,
2,Andrey Reyn,Андрей Рейн,1991,56.30,95,100,-112.5,100,59,B,Single-ply,Open,M,100.0,
1,Anatoliy Polyakov,Анатолий Поляков,1998,64.50,-120,120,122.5,122.5,66,B,Single-ply,Open,M,122.5,
2,Timur Shishlov,Тимур Шишлов,1999,64.90,105,-112.5,112.5,112.5,66,B,Single-ply,Open,M,112.5,
3,Igor Matveenko #2,Игорь Матвеенко,1986,65.70,97.5,102.5,107.5,107.5,66,B,Single-ply,Open,M,107.5,
4,Nikita Antipov,Никита Антипов,1999,66.00,75,-80,85,85,66,B,Single-ply,Open,M,85.0,
5,Artem Zlobin,Артем Злобин,2001,65.50,65,70,-72.5,70,66,B,Single-ply,Open,M,70.0,
6,Arutyun Zakaryan,Арутюн Закарян,2001,65.90,60,65,-67.5,65,66,B,Single-ply,Open,M,65.0,
7,Aleksandr Arutyunov,Александр Арутюнов,2000,62.30,55,60,-65,60,66,B,Single-ply,Open,M,60.0,
1,Maksim Korolyov,Максим Королёв,1989,69.50,140,145,160,160,74,B,Single-ply,Open,M,160.0,
2,Aleksey Doronchekov,Алексей Дорончеков,1991,73.50,130,-137.5,137.5,137.5,74,B,Single-ply,Open,M,137.5,
3,Ivan Karnyushin,Иван Карнюшин,1986,73.10,135,-140,-140,135,74,B,Single-ply,Open,M,135.0,
4,Aleksandr Korotkov,Александр Коротков,1992,71.60,110,115,120,120,74,B,Single-ply,Open,M,120.0,
1,Svyatoslav Panasyuk,Святослав Панасюк,1993,79.30,,160,-170,160,83,B,Single-ply,Open,M,160.0,
2,Sergey Malgin,Сергей Мальгин,1998,76.60,120,-127.5,127.5,127.5,83,B,Single-ply,Open,M,127.5,
3,Oleg Usachev,Олег Усачев,1998,80.00,115,120,122.5,122.5,83,B,Single-ply,Open,M,122.5,
1,Aleksandr Nikitichev,Александр Никитичев,,92.60,230,237.5,240,240,93,B,Single-ply,Open,M,240.0,
2,Denis Korshunov,Денис Коршунов,1982,88.10,210,220,-237.5,220,93,B,Single-ply,Open,M,220.0,
3,Vitaliy Marin,Виталий Марьин,1988,91.30,200,210,-222.5,210,93,B,Single-ply,Open,M,210.0,
4,Ilya Romenskiy,Илья Роменский,1992,92.40,-175,175,-182.5,175,93,B,Single-ply,Open,M,175.0,
5,Sergey Popov,Сергей Попов,1987,92.00,-160,160,170,170,93,B,Single-ply,Open,M,170.0,
6,Pavel Antushevich,Павел Антушевич,1986,86.00,120,125,-130,125,93,B,Single-ply,Open,M,125.0,
1,Aleksandr Sukhanov,Александр Суханов,1990,102.80,170,180,185,185,105,B,Single-ply,Open,M,185.0,
2,Artem Kotsenko,Артем Коценко,1979,99.10,170,177.5,182.5,182.5,105,B,Single-ply,Open,M,182.5,
3,Viktor Avdeev,Виктор Авдеев,1989,99.80,167.5,172.5,-180,172.5,105,B,Single-ply,Open,M,172.5,
4,Sergey Kuznetsov #45,Сергей Кузнецов,1975,96.00,145,150,-155,150,105,B,Single-ply,Open,M,150.0,
5,Nikolay Mashtakov,Николай Маштаков,1982,104.50,120,135,-140,135,105,B,Single-ply,Open,M,135.0,
6,Ivan Kalita,Иван Калита,2001,98.10,70,75,-80,75,105,B,Single-ply,Open,M,75.0,
DQ,Dmitriy Konin,Дмитрий Конин,1975,99.50,-235,-235,-235,,105,B,Single-ply,Open,M,,
1,Aleksey Golikov,Алексей Голиков,1997,115.50,160,167.5,170,170,120,B,Single-ply,Open,M,170.0,
2,Mikhail Zhuravlev,Михаил Журавлев,1983,106.20,155,157.5,167.5,167.5,120,B,Single-ply,Open,M,167.5,
3,Artem Sorokin,Артем Сорокин,1976,110.30,120,130,140,140,120,B,Single-ply,Open,M,140.0,
