Name,WeightClassKg,Division,Team,Sex,State,Squat1Kg,Squat2Kg,Squat3Kg,Best3SquatKg,Bench1Kg,Bench2Kg,Bench3Kg,Best3BenchKg,Deadlift1Kg,Deadlift2Kg,Deadlift3Kg,Best3DeadliftKg,TotalKg,Equipment,Place,Event
Doug Ondercin,60,M-T3,Sheffield Village,M,OH,-151.95,151.95,-158.76,151.95,-74.84,79.38,-83.91,79.38,147.42,151.5,165.56,165.56,396.89,Single-ply,1,SBD
Carley Bolitho,60,F-C,Ashland,F,OH,-106.59,106.59,113.4,113.4,-56.7,56.7,61.23,61.23,102.06,106.59,113.4,113.4,288.03,Single-ply,1,SBD
Amanda Pommer,60,FR-O,Centerville,F,OH,43.09,49.9,54.43,54.43,38.56,43.09,49.9,49.9,52.16,61.23,-68.04,61.23,165.56,Raw,1,SBD
Chun Hun Tong,67.5,M-T,Sheffield Village,M,OH,-174.63,-174.63,174.63,174.63,106.59,111.13,-115.67,111.13,158.76,174.63,-181.44,174.63,460.4,Single-ply,1,SBD
Chun Hun Tong,67.5,M-Jr,Sheffield Village,M,OH,-174.63,-174.63,174.63,174.63,106.59,111.13,-115.67,111.13,158.76,174.63,-181.44,174.63,460.4,Single-ply,1,SBD
Cat Carlson,67.5,MR-O,Beavercreek,M,OH,74.84,83.91,92.99,92.99,52.16,56.7,61.23,61.23,83.91,106.59,117.93,117.93,272.16,Raw,1,SBD
Justin Caputo,75,MR-O,Lorain,M,OH,172.37,176.9,181.44,181.44,-113.4,113.4,117.93,117.93,208.65,217.72,-222.26,217.72,517.1,Raw,1,SBD
Nicholas Royer,82.5,M-Jr,Highland Hts,M,OH,195.04,-213.19,213.19,213.19,-167.83,170.1,-181.44,170.1,199.58,219.99,-233.6,219.99,603.28,Single-ply,1,SBD
John Suschak,90,M-Jr,Broadview Hts,M,OH,226.8,,,226.8,142.88,170.1,,170.1,226.8,249.48,,249.48,646.37,Single-ply,1,SBD
Gary Beck,90,M-M2,Webster,M,NY,-215.46,215.46,-240.4,215.46,124.74,138.35,-145.15,138.35,-215.46,215.46,-254.01,215.46,569.26,Single-ply,1,SBD
Ray Kopchak,90,M-PFM,Brook Park,M,OH,174.63,183.7,-210.92,183.7,-165.56,165.56,176.9,176.9,183.7,-195.04,-204.12,183.7,544.31,Single-ply,1,SBD
Joe Lupia,90,MR-O,Garfield Hts,M,OH,192.78,204.12,-210.92,204.12,138.35,145.15,-154.22,145.15,226.8,-249.48,,226.8,576.06,Raw,1,SBD
Mike Rucci,90,MR-O,Mayfield Hts,M,OH,170.1,-190.51,192.78,192.78,113.4,124.74,-131.54,124.74,215.46,233.6,240.4,240.4,557.92,Raw,2,SBD
Brian Godsen,90,MR-O,Youngstown,M,OH,183.7,-201.85,-204.12,183.7,124.74,-129.27,-131.54,124.74,206.38,215.46,-224.53,215.46,523.9,Raw,3,SBD
Jeff LaGaurdia,90,MR-O,Garfield Hts,M,OH,142.88,151.95,161.03,161.03,102.06,-111.13,-111.13,102.06,158.76,170.1,-181.44,170.1,433.18,Raw,4,SBD
Tom Fox #4,100,MR-O,Suffield,M,OH,226.8,240.4,249.48,249.48,142.88,151.95,-156.49,151.95,226.8,238.14,-247.21,238.14,639.57,Raw,1,SBD
William Mance,100,M-O,Columbus,M,OH,192.78,-208.65,-208.65,192.78,142.88,-154.22,-154.22,142.88,208.65,240.4,-254.01,240.4,576.06,Single-ply,1,SBD
Tom Fox #4,100,M-M1,Suffield,M,OH,226.8,240.4,249.48,249.48,142.88,151.95,-156.49,151.95,226.8,238.14,-247.21,238.14,639.57,Single-ply,1,SBD
Kevin Clark,100,M-C,Coshocton,M,OH,224.53,231.33,-235.87,231.33,138.35,-151.95,161.03,161.03,195.04,204.12,-226.8,204.12,596.47,Single-ply,1,SBD
Kevin Long,100,M-C,Bowling Green,M,OH,-174.63,-174.63,174.63,174.63,102.06,-133.81,-138.35,102.06,174.63,206.38,226.8,226.8,503.49,Single-ply,2,SBD
Adam Dawson,110,M-C,Lexington,M,OH,97.52,108.86,124.74,124.74,95.25,104.33,-117.93,104.33,113.4,136.08,165.56,165.56,394.63,Single-ply,1,SBD
Gary Bess,125,MR-O,Wooster,M,OH,215.46,224.53,238.14,238.14,170.1,181.44,-195.04,181.44,285.76,299.37,-317.51,299.37,718.94,Raw,1,SBD
Nathan Bartell,125,M-Nov,Beavercreek,M,OH,-92.99,92.99,-106.59,92.99,92.99,102.06,-111.13,102.06,113.4,129.27,142.88,142.88,337.93,Single-ply,1,SBD
Nathan Bartell,125,M-T1,Beavercreek,M,OH,-92.99,92.99,-106.59,92.99,92.99,102.06,-111.13,102.06,113.4,129.27,142.88,142.88,337.93,Single-ply,1,SBD
Wade Likens,125+,M-O,Girard,M,OH,281.23,303.91,-317.51,303.91,265.35,285.76,-294.84,285.76,272.16,288.03,,288.03,877.7,Single-ply,1,SBD
Tom Leone,125+,MR-O,Canfield,M,OH,197.31,-219.99,-219.99,197.31,142.88,-151.95,-151.95,142.88,215.46,233.6,240.4,240.4,580.6,Raw,1,SBD
James Linden,52,M-T1,Greensburg,M,PA,,,,,68.04,72.57,-79.38,72.57,,,,,72.57,Single-ply,1,B
Nancy Proctor,56,F-M2,Findlay,F,OH,,,,,58.97,63.5,-65.77,63.5,,,,,63.5,Single-ply,1,B
Beverly Morris,56,F-M3,Medina,F,OH,,,,,36.29,40.82,-43.09,40.82,,,,,40.82,Single-ply,1,B
Jay Helms,60,M-M1,Findlay,M,OH,,,,,117.93,-129.27,-136.08,117.93,,,,,117.93,Single-ply,1,B
Michael Freecorn,60,M-M1,Toledo,M,OH,,,,,102.06,108.86,-113.4,108.86,,,,,108.86,Single-ply,2,B
Joe Smith,67.5,M-O,Findlay,M,OH,,,,,204.12,-210.92,215.46,215.46,,,,,215.46,Single-ply,1,B
Steve Mickey,67.5,MR-O,Cleveland,M,OH,,,,,136.08,-145.15,-145.15,136.08,,,,,136.08,Raw,1,B
Joseph Scribner,67.5,M-M1,Toledo,M,OH,,,,,124.74,-133.81,-133.81,124.74,,,,,124.74,Single-ply,1,B
Dr. Miguel Ruelan,75,M-O,Flushing,M,MI,,,,,197.31,-208.65,210.92,210.92,,,,,210.92,Single-ply,1,B
Dr. Larry Miller,75,M-M2,Solon,M,OH,,,,,195.04,208.65,-224.53,208.65,,,,,208.65,Single-ply,1,B
Andy Furnas,82.5,M-O,Powell,M,OH,,,,,192.78,204.12,210.92,210.92,,,,,210.92,Single-ply,1,B
Nicholas Royer,82.5,M-Jr,Highland Hts,M,OH,,,,,-167.83,170.1,-181.44,170.1,,,,,170.1,Single-ply,1,B
Gregory Barnes,82.5,MR-O,Massillon,M,OH,,,,,-115.67,115.67,-124.74,115.67,,,,,115.67,Raw,1,B
Tim Stroshine,90,M-O,Waterville,M,OH,,,,,-229.06,231.33,-240.4,231.33,,,,,231.33,Single-ply,1,B
Greg Saultz,90,M-O,Lorain,M,OH,,,,,190.51,-199.58,-204.12,190.51,,,,,190.51,Single-ply,2,B
John Wrabel,90,M-M1,Seven Hills,M,OH,,,,,-167.83,-172.37,172.37,172.37,,,,,172.37,Single-ply,1,B
Phil Olsen,90,M-Jr,Smithsville,M,OH,,,,,-165.56,167.83,-181.44,167.83,,,,,167.83,Single-ply,1,B
Steve Spinelli,100,M-O,Aurora,M,OH,,,,,231.33,-244.94,-249.48,231.33,,,,,231.33,Single-ply,1,B
Ralph Brown,100,M-M2,Arcadia,M,OH,,,,,167.83,176.9,-183.7,176.9,,,,,176.9,Single-ply,1,B
Josh Krafcik,100,MR-O,Lorain,M,OH,,,,,115.67,-120.2,-122.47,115.67,,,,,115.67,Raw,1,B
Kevin Mayer,110,M-M1,Akron,M,OH,,,,,272.16,283.5,297.1,297.1,,,,,297.1,Single-ply,1,B
Pat Cannon,110,M-M2,Seven Hills,M,OH,,,,,195.04,213.19,226.8,226.8,,,,,226.8,Single-ply,1,B
Rob Falkowski,110,M-O,Middleburg Hts,M,OH,,,,,-163.29,170.1,-181.44,170.1,,,,,170.1,Single-ply,1,B
Horace Lane,125,M-M1,Sterling Hts,M,MI,,,,,-306.17,306.17,-326.59,306.17,,,,,306.17,Single-ply,1,B
Wade Likens,125+,M-O,Girard,M,OH,,,,,265.35,285.76,-294.84,285.76,,,,,285.76,Single-ply,1,B
